<?xml version="1.0" standalone="no"?>
<!DOCTYPE svg PUBLIC "-//W3C//DTD SVG 20010904//EN"
 "http://www.w3.org/TR/2001/REC-SVG-20010904/DTD/svg10.dtd">
<svg version="1.0" xmlns="http://www.w3.org/2000/svg"
 width="1600.000000pt" height="1600.000000pt" viewBox="0 0 1600.000000 1600.000000"
 preserveAspectRatio="xMidYMid meet">
<metadata>
Created by potrace 1.11, written by Peter Selinger 2001-2013
</metadata>
<g transform="translate(0.000000,1600.000000) scale(0.100000,-0.100000)"
fill="#000000" stroke="none">
<path d="M1920 12493 c-208 -37 -375 -202 -411 -407 -40 -234 90 -464 315
-553 l71 -28 605 -3 c332 -2 606 -5 608 -6 2 -3 35 -126 57 -216 6 -28 26
-105 29 -120 17 -63 28 -110 35 -140 5 -19 16 -64 26 -100 9 -36 19 -76 21
-90 3 -14 7 -32 10 -40 3 -8 8 -26 10 -40 3 -14 14 -59 26 -100 11 -41 24 -93
29 -115 5 -22 13 -58 19 -80 6 -22 13 -51 16 -65 3 -14 9 -38 14 -55 8 -24 67
-257 85 -335 20 -87 68 -281 76 -305 7 -24 65 -257 84 -335 2 -8 15 -62 30
-120 14 -58 28 -116 31 -130 2 -14 7 -32 10 -40 4 -8 12 -42 20 -75 8 -33 16
-67 18 -75 7 -24 66 -259 82 -325 8 -33 16 -67 18 -75 3 -8 9 -35 15 -60 7
-25 13 -52 15 -60 3 -8 9 -35 15 -60 7 -25 13 -52 16 -60 7 -28 36 -145 40
-165 3 -11 23 -92 46 -180 22 -88 42 -167 44 -175 3 -14 90 -362 101 -402 2
-10 6 -26 8 -35 2 -10 10 -38 16 -63 6 -25 15 -61 19 -80 5 -19 16 -64 26
-100 9 -36 19 -78 22 -95 3 -16 9 -38 14 -47 5 -10 8 -18 5 -18 -4 0 13 -70
44 -180 5 -19 26 -100 45 -180 20 -80 38 -153 41 -162 2 -10 6 -27 8 -37 59
-264 135 -412 290 -567 168 -167 356 -257 601 -288 22 -3 279 -6 570 -7 488
-1 523 -2 437 -15 -234 -34 -458 -122 -642 -252 -210 -149 -382 -349 -489
-567 -54 -109 -110 -262 -126 -340 -28 -143 -34 -214 -30 -365 5 -228 48 -405
151 -616 74 -153 158 -268 294 -404 197 -197 424 -327 690 -394 133 -33 156
-36 325 -41 320 -8 603 74 871 255 96 65 114 80 224 190 136 135 212 243 289
405 67 140 80 176 112 311 29 121 30 135 33 319 2 133 -1 190 -16 260 -10 50
-20 102 -23 116 -3 15 -19 69 -36 120 -96 283 -288 543 -538 728 -47 34 -101
71 -120 82 -20 11 -43 24 -51 29 -19 13 -108 52 -189 84 -83 33 -247 74 -341
85 -44 5 809 8 2055 9 1172 0 2110 -4 2085 -8 -25 -4 -58 -10 -75 -13 -141
-24 -261 -64 -410 -137 -295 -146 -541 -396 -684 -693 -46 -95 -94 -225 -105
-278 -2 -13 -9 -46 -16 -73 -21 -92 -25 -141 -24 -311 1 -136 5 -191 23 -275
101 -476 409 -865 845 -1069 87 -41 254 -98 314 -107 20 -3 45 -7 54 -10 46
-13 75 -16 218 -19 85 -2 180 0 210 5 125 18 145 22 151 25 3 2 19 7 36 9 64
12 193 61 308 117 443 217 757 656 823 1149 9 71 9 309 0 380 -68 506 -398
955 -858 1168 -117 54 -152 66 -266 96 -58 15 -88 21 -189 36 -31 5 61 8 235
10 293 2 300 2 385 14 61 9 208 57 273 90 260 132 464 400 527 692 2 11 31
116 63 234 33 118 106 386 162 595 56 209 111 409 122 445 11 36 21 73 23 83
2 10 7 27 10 37 3 10 8 27 10 37 2 10 49 185 105 388 56 204 103 377 105 385
1 8 31 116 65 240 63 229 106 387 140 518 11 40 45 164 76 275 31 111 57 209
59 217 2 8 20 74 40 145 20 72 38 137 40 145 4 21 162 605 179 665 44 153 76
273 76 284 0 8 -130 11 -522 9 l-522 -3 -27 -105 c-16 -58 -37 -139 -49 -180
-11 -41 -23 -86 -26 -100 -2 -14 -9 -38 -14 -55 -10 -31 -50 -180 -100 -370
-16 -60 -76 -288 -135 -505 -58 -217 -108 -402 -110 -410 -2 -8 -47 -177 -100
-375 -53 -198 -107 -400 -120 -450 -13 -49 -38 -142 -55 -205 -18 -63 -43
-158 -57 -210 -13 -52 -40 -153 -60 -225 -19 -71 -37 -139 -40 -150 -10 -38
-113 -430 -123 -465 -5 -19 -18 -66 -29 -105 -11 -38 -22 -81 -25 -95 -3 -14
-26 -101 -51 -195 -52 -189 -50 -182 -67 -247 l-11 -48 -3117 0 -3117 0 -11
38 c-12 38 -60 228 -69 272 -3 14 -21 86 -40 160 -19 74 -36 142 -38 150 -2 8
-20 80 -40 160 -20 80 -38 152 -40 160 -10 43 -26 107 -30 120 -2 8 -11 47
-20 85 -9 39 -20 84 -25 100 -8 23 -53 203 -85 335 -2 8 -13 53 -25 100 -11
47 -23 96 -26 110 -3 14 -9 41 -15 60 -6 19 -17 62 -25 95 -7 33 -16 67 -18
75 -7 24 -47 183 -53 210 -3 14 -26 104 -50 200 -25 96 -49 191 -53 210 -4 19
-18 73 -30 120 -12 47 -24 96 -27 110 -3 14 -21 86 -40 160 -19 74 -41 162
-49 195 -8 33 -16 67 -18 75 -2 8 -18 71 -36 140 -17 69 -33 132 -35 140 -9
38 -26 107 -30 124 -2 10 -16 64 -31 120 -14 55 -28 115 -31 131 -3 17 -9 38
-14 48 -5 9 -8 17 -5 17 4 0 -6 41 -43 180 -23 81 -53 206 -57 229 -3 14 -11
49 -19 76 -16 57 -43 161 -56 220 -5 22 -13 58 -19 80 -16 62 -18 67 -29 115
-7 25 -13 52 -15 60 -17 63 -28 110 -35 140 -49 213 -90 318 -174 442 -136
201 -359 357 -585 409 -26 6 -56 13 -67 17 -23 7 -1327 12 -1365 5z m4703
-8009 c212 -50 362 -233 372 -455 11 -235 -116 -426 -335 -504 -72 -26 -242
-27 -312 -2 -174 61 -295 192 -332 358 -84 374 234 690 607 603z m4502 2 c104
-22 245 -126 300 -221 56 -94 68 -142 68 -265 0 -123 -13 -171 -68 -266 -132
-226 -452 -299 -691 -159 -94 55 -197 196 -220 300 -13 60 -11 198 3 254 45
173 188 314 359 355 58 14 189 15 249 2z"/>
<path d="M8000 11750 l0 -750 -750 0 -750 0 0 -500 0 -500 750 0 750 0 0 -750
0 -750 500 0 500 0 0 750 0 750 750 0 750 0 0 500 0 500 -750 0 -750 0 0 750
0 750 -500 0 -500 0 0 -750z"/>
</g>
</svg>
